G95 module created on Tue Mar 20 16:57:09 2018 from all.f90
If you edit this, you'll get what you deserve.
module-version 9
(() () () () () () () () () () () () () () () () () () () () ())

()

()

()

()

(2 'baseeyear' 'comm' 1 ((VARIABLE UNKNOWN UNKNOWN UNKNOWN NONE NONE) (
INTEGER 4) 0 0 () () () '' () ())
3 'basesyear' 'comm' 1 ((VARIABLE UNKNOWN UNKNOWN UNKNOWN NONE NONE) (
INTEGER 4) 0 0 () () () '' () ())
4 'byrs' 'comm' 1 ((VARIABLE UNKNOWN UNKNOWN UNKNOWN NONE NONE) (
INTEGER 4) 0 0 () () () '' () ())
5 'cal_ehi' 'comm' 1 ((VARIABLE UNKNOWN UNKNOWN UNKNOWN NONE NONE) (
LOGICAL 4) 0 0 () () () '' () ())
6 'comm' 'comm' 1 ((MODULE UNKNOWN UNKNOWN UNKNOWN NONE NONE) (UNKNOWN)
0 0 () () () '' () ())
7 'data_dir' 'comm' 1 ((VARIABLE UNKNOWN UNKNOWN UNKNOWN NONE NONE) (
CHARACTER 1 ((CONSTANT (INTEGER 4) 0 '200'))) 0 0 () () () '' () ())
8 'doy' 'comm' 1 ((PARAMETER UNKNOWN UNKNOWN UNKNOWN NONE NONE) (
INTEGER 4) 0 0 () (CONSTANT (INTEGER 4) 0 '365') () () '' () ())
9 'dp' 'comm' 1 ((PARAMETER UNKNOWN UNKNOWN UNKNOWN NONE NONE) (INTEGER
4) 0 0 () (CONSTANT (INTEGER 4) 0 '4') () () '' () ())
10 'eyear' 'comm' 1 ((VARIABLE UNKNOWN UNKNOWN UNKNOWN NONE NONE) (
INTEGER 4) 0 0 () () () '' () ())
11 'folder' 'comm' 1 ((VARIABLE UNKNOWN UNKNOWN UNKNOWN NONE NONE
DIMENSION DATA) (CHARACTER 1 ((CONSTANT (INTEGER 4) 0 '200'))) 0 0 () (
1 EXPLICIT (CONSTANT (INTEGER 4) 0 '1') (CONSTANT (INTEGER 4) 0 '40')) ()
'' () ())
12 'id_ifile' 'comm' 1 ((VARIABLE UNKNOWN UNKNOWN UNKNOWN NONE NONE) (
INTEGER 4) 0 0 () () () '' () ())
13 'id_inf' 'comm' 1 ((VARIABLE UNKNOWN UNKNOWN UNKNOWN NONE NONE) (
INTEGER 4) 0 0 () () () '' () ())
14 'id_log' 'comm' 1 ((VARIABLE UNKNOWN UNKNOWN UNKNOWN NONE NONE) (
INTEGER 4) 0 0 () () () '' () ())
15 'id_para' 'comm' 1 ((VARIABLE UNKNOWN UNKNOWN UNKNOWN NONE NONE) (
INTEGER 4) 0 0 () () () '' () ())
16 'idsave' 'comm' 1 ((VARIABLE UNKNOWN UNKNOWN UNKNOWN NONE NONE) (
INTEGER 4) 0 0 () () () '' () ())
17 'iend' 'comm' 1 ((VARIABLE UNKNOWN UNKNOWN UNKNOWN NONE NONE) (
INTEGER 4) 0 0 () () () '' () ())
18 'ifile' 'comm' 1 ((VARIABLE UNKNOWN UNKNOWN UNKNOWN NONE NONE) (
CHARACTER 1 ((CONSTANT (INTEGER 4) 0 '200'))) 0 0 () () () '' () ())
19 'inf_file' 'comm' 1 ((VARIABLE UNKNOWN UNKNOWN UNKNOWN NONE NONE) (
CHARACTER 1 ((CONSTANT (INTEGER 4) 0 '200'))) 0 0 () () () '' () ())
20 'ipt_dir' 'comm' 1 ((VARIABLE UNKNOWN UNKNOWN UNKNOWN NONE NONE) (
CHARACTER 1 ((CONSTANT (INTEGER 4) 0 '200'))) 0 0 () () () '' () ())
21 'kind' '(intrinsic)' 1 ((PROCEDURE UNKNOWN INTRINSIC UNKNOWN NONE
NONE FUNCTION) (UNKNOWN) 0 0 () () () '' () ())
22 'latitude' 'comm' 1 ((VARIABLE UNKNOWN UNKNOWN UNKNOWN NONE NONE) (
REAL 4) 0 0 () () () '' () ())
23 'log_file' 'comm' 1 ((VARIABLE UNKNOWN UNKNOWN UNKNOWN NONE NONE) (
CHARACTER 1 ((CONSTANT (INTEGER 4) 0 '200'))) 0 0 () () () '' () ())
24 'maxyear' 'comm' 1 ((PARAMETER UNKNOWN UNKNOWN UNKNOWN NONE NONE) (
INTEGER 4) 0 0 () (CONSTANT (INTEGER 4) 0 '500') () () '' () ())
25 'missing' 'comm' 1 ((PARAMETER UNKNOWN UNKNOWN UNKNOWN NONE NONE) (
REAL 4) 0 0 () (CONSTANT (REAL 4) 0 '13094093' 1 133) () () '' () ())
26 'mnastat' 'comm' 1 ((VARIABLE UNKNOWN UNKNOWN UNKNOWN NONE NONE
DIMENSION) (INTEGER 4) 0 0 () (3 EXPLICIT (CONSTANT (INTEGER 4) 0 '1') (
CONSTANT (INTEGER 4) 0 '500') (CONSTANT (INTEGER 4) 0 '1') (CONSTANT (
INTEGER 4) 0 '12') (CONSTANT (INTEGER 4) 0 '1') (CONSTANT (INTEGER 4) 0
'3')) () '' () ())
27 'mon' 'comm' 1 ((VARIABLE UNKNOWN UNKNOWN UNKNOWN NONE NONE DIMENSION
DATA) (INTEGER 4) 0 0 () (2 EXPLICIT (CONSTANT (INTEGER 4) 0 '1') (
CONSTANT (INTEGER 4) 0 '12') (CONSTANT (INTEGER 4) 0 '1') (CONSTANT (
INTEGER 4) 0 '2')) () '' () ())
28 'n_index' 'comm' 1 ((PARAMETER UNKNOWN UNKNOWN UNKNOWN NONE NONE) (
INTEGER 4) 0 0 () (CONSTANT (INTEGER 4) 0 '40') () () '' () ())
29 'nomissingthreshold' 'comm' 1 ((VARIABLE UNKNOWN UNKNOWN UNKNOWN NONE
NONE) (REAL 4) 0 0 () () () '' () ())
30 'odir' 'comm' 1 ((VARIABLE UNKNOWN UNKNOWN UNKNOWN NONE NONE) (
CHARACTER 1 ((CONSTANT (INTEGER 4) 0 '200'))) 0 0 () () () '' () ())
31 'ofile' 'comm' 1 ((VARIABLE UNKNOWN UNKNOWN UNKNOWN NONE NONE
DIMENSION) (CHARACTER 1 ((CONSTANT (INTEGER 4) 0 '250'))) 0 0 () (1
EXPLICIT (CONSTANT (INTEGER 4) 0 '1') (CONSTANT (INTEGER 4) 0 '40')) () ''
() ())
32 'ofile_base' 'comm' 1 ((VARIABLE UNKNOWN UNKNOWN UNKNOWN NONE NONE) (
CHARACTER 1 ((CONSTANT (INTEGER 4) 0 '200'))) 0 0 () () () '' () ())
33 'oname' 'comm' 1 ((VARIABLE UNKNOWN UNKNOWN UNKNOWN NONE NONE) (
CHARACTER 1 ((CONSTANT (INTEGER 4) 0 '200'))) 0 0 () () () '' () ())
34 'opt_dir' 'comm' 1 ((VARIABLE UNKNOWN UNKNOWN UNKNOWN NONE NONE) (
CHARACTER 1 ((CONSTANT (INTEGER 4) 0 '200'))) 0 0 () () () '' () ())
35 'os' 'comm' 1 ((VARIABLE UNKNOWN UNKNOWN UNKNOWN NONE NONE) (
CHARACTER 1 ((CONSTANT (INTEGER 4) 0 '200'))) 0 0 () () () '' () ())
36 'para_file' 'comm' 1 ((VARIABLE UNKNOWN UNKNOWN UNKNOWN NONE NONE) (
CHARACTER 1 ((CONSTANT (INTEGER 4) 0 '200'))) 0 0 () () () '' () ())
37 'prcp' 'comm' 1 ((VARIABLE UNKNOWN UNKNOWN UNKNOWN NONE NONE
DIMENSION) (REAL 4) 0 0 () (1 EXPLICIT (CONSTANT (INTEGER 4) 0 '1') (
CONSTANT (INTEGER 4) 0 '182500')) () '' () ())
38 'prcp_miss' 'comm' 1 ((VARIABLE UNKNOWN UNKNOWN UNKNOWN NONE NONE) (
LOGICAL 4) 0 0 () () () '' () ())
39 'prcpnn' 'comm' 1 ((VARIABLE UNKNOWN UNKNOWN UNKNOWN NONE NONE) (
INTEGER 4) 0 0 () () () '' () ())
40 'save_thresholds' 'comm' 1 ((VARIABLE UNKNOWN UNKNOWN UNKNOWN NONE
NONE) (LOGICAL 4) 0 0 () () () '' () ())
41 'ss' 'comm' 1 ((VARIABLE UNKNOWN UNKNOWN UNKNOWN NONE NONE) (INTEGER
4) 0 0 () () () '' () ())
42 'stdspan' 'comm' 1 ((VARIABLE UNKNOWN UNKNOWN UNKNOWN NONE NONE) (
INTEGER 4) 0 0 () () () '' () ())
43 'stnid' 'comm' 1 ((VARIABLE UNKNOWN UNKNOWN UNKNOWN NONE NONE) (
CHARACTER 1 ((CONSTANT (INTEGER 4) 0 '200'))) 0 0 () () () '' () ())
44 'sub' 'comm' 1 ((VARIABLE UNKNOWN UNKNOWN UNKNOWN NONE NONE) (
CHARACTER 1 ((CONSTANT (INTEGER 4) 0 '1'))) 0 0 () () () '' () ())
45 'sub2' 'comm' 1 ((VARIABLE UNKNOWN UNKNOWN UNKNOWN NONE NONE
DIMENSION DATA) (CHARACTER 1 ((CONSTANT (INTEGER 4) 0 '1'))) 0 0 () (1
EXPLICIT (CONSTANT (INTEGER 4) 0 '1') (CONSTANT (INTEGER 4) 0 '2')) () ''
() ())
46 'syear' 'comm' 1 ((VARIABLE UNKNOWN UNKNOWN UNKNOWN NONE NONE) (
INTEGER 4) 0 0 () () () '' () ())
47 'tmax' 'comm' 1 ((VARIABLE UNKNOWN UNKNOWN UNKNOWN NONE NONE
DIMENSION) (REAL 4) 0 0 () (1 EXPLICIT (CONSTANT (INTEGER 4) 0 '1') (
CONSTANT (INTEGER 4) 0 '182500')) () '' () ())
48 'tmax_miss' 'comm' 1 ((VARIABLE UNKNOWN UNKNOWN UNKNOWN NONE NONE) (
LOGICAL 4) 0 0 () () () '' () ())
49 'tmin' 'comm' 1 ((VARIABLE UNKNOWN UNKNOWN UNKNOWN NONE NONE
DIMENSION) (REAL 4) 0 0 () (1 EXPLICIT (CONSTANT (INTEGER 4) 0 '1') (
CONSTANT (INTEGER 4) 0 '182500')) () '' () ())
50 'tmin_miss' 'comm' 1 ((VARIABLE UNKNOWN UNKNOWN UNKNOWN NONE NONE) (
LOGICAL 4) 0 0 () () () '' () ())
51 'tot' 'comm' 1 ((VARIABLE UNKNOWN UNKNOWN UNKNOWN NONE NONE) (
INTEGER 4) 0 0 () () () '' () ())
52 'winsize' 'comm' 1 ((VARIABLE UNKNOWN UNKNOWN UNKNOWN NONE NONE DATA)
(INTEGER 4) 0 0 () () () '' () ())
53 'ymd' 'comm' 1 ((VARIABLE UNKNOWN UNKNOWN UNKNOWN NONE NONE DIMENSION)
(INTEGER 4) 0 0 () (2 EXPLICIT (CONSTANT (INTEGER 4) 0 '1') (CONSTANT (
INTEGER 4) 0 '182500') (CONSTANT (INTEGER 4) 0 '1') (CONSTANT (INTEGER 4)
0 '3')) () '' () ())
54 'ynastat' 'comm' 1 ((VARIABLE UNKNOWN UNKNOWN UNKNOWN NONE NONE
DIMENSION) (INTEGER 4) 0 0 () (2 EXPLICIT (CONSTANT (INTEGER 4) 0 '1') (
CONSTANT (INTEGER 4) 0 '500') (CONSTANT (INTEGER 4) 0 '1') (CONSTANT (
INTEGER 4) 0 '3')) () '' () ())
55 'yrs' 'comm' 1 ((VARIABLE UNKNOWN UNKNOWN UNKNOWN NONE NONE) (
INTEGER 4) 0 0 () () () '' () ())
)

('baseeyear' 0 2 'basesyear' 0 3 'byrs' 0 4 'cal_ehi' 0 5 'comm' 0 6
'data_dir' 0 7 'doy' 0 8 'dp' 0 9 'eyear' 0 10 'folder' 0 11 'id_ifile'
0 12 'id_inf' 0 13 'id_log' 0 14 'id_para' 0 15 'idsave' 0 16 'iend' 0
17 'ifile' 0 18 'inf_file' 0 19 'ipt_dir' 0 20 'kind' 0 21 'latitude' 0
22 'log_file' 0 23 'maxyear' 0 24 'missing' 0 25 'mnastat' 0 26 'mon' 0
27 'n_index' 0 28 'nomissingthreshold' 0 29 'odir' 0 30 'ofile' 0 31
'ofile_base' 0 32 'oname' 0 33 'opt_dir' 0 34 'os' 0 35 'para_file' 0 36
'prcp' 0 37 'prcp_miss' 0 38 'prcpnn' 0 39 'save_thresholds' 0 40 'ss' 0
41 'stdspan' 0 42 'stnid' 0 43 'sub' 0 44 'sub2' 0 45 'syear' 0 46 'tmax'
0 47 'tmax_miss' 0 48 'tmin' 0 49 'tmin_miss' 0 50 'tot' 0 51 'winsize'
0 52 'ymd' 0 53 'ynastat' 0 54 'yrs' 0 55)
