G95 module created on Tue Mar 20 16:57:09 2018 from all.f90
If you edit this, you'll get what you deserve.
module-version 9
(() () () () () () () () () () () () () () () () () () () () ())

()

()

()

()

(2 'baseeyear' 'comm' 1 ((VARIABLE UNKNOWN UNKNOWN UNKNOWN NONE NONE) (
INTEGER 4) 0 0 () () () '' () ())
3 'basesyear' 'comm' 1 ((VARIABLE UNKNOWN UNKNOWN UNKNOWN NONE NONE) (
INTEGER 4) 0 0 () () () '' () ())
4 'byrs' 'comm' 1 ((VARIABLE UNKNOWN UNKNOWN UNKNOWN NONE NONE) (
INTEGER 4) 0 0 () () () '' () ())
5 'cal_ehi' 'comm' 1 ((VARIABLE UNKNOWN UNKNOWN UNKNOWN NONE NONE) (
LOGICAL 4) 0 0 () () () '' () ())
6 'comm' 'comm' 1 ((MODULE UNKNOWN UNKNOWN UNKNOWN NONE NONE) (UNKNOWN)
0 0 () () () '' () ())
7 'data_dir' 'comm' 1 ((VARIABLE UNKNOWN UNKNOWN UNKNOWN NONE NONE) (
CHARACTER 1 ((CONSTANT (INTEGER 4) 0 '200'))) 0 0 () () () '' () ())
8 'doy' 'comm' 1 ((PARAMETER UNKNOWN UNKNOWN UNKNOWN NONE NONE) (
INTEGER 4) 0 0 () (CONSTANT (INTEGER 4) 0 '365') () () '' () ())
9 'dp' 'comm' 1 ((PARAMETER UNKNOWN UNKNOWN UNKNOWN NONE NONE) (INTEGER
4) 0 0 () (CONSTANT (INTEGER 4) 0 '4') () () '' () ())
10 'eyear' 'comm' 1 ((VARIABLE UNKNOWN UNKNOWN UNKNOWN NONE NONE) (
INTEGER 4) 0 0 () () () '' () ())
11 'folder' 'comm' 1 ((VARIABLE UNKNOWN UNKNOWN UNKNOWN NONE NONE
DIMENSION DATA) (CHARACTER 1 ((CONSTANT (INTEGER 4) 0 '200'))) 0 0 () (
1 EXPLICIT (CONSTANT (INTEGER 4) 0 '1') (CONSTANT (INTEGER 4) 0 '40')) ()
'' () ())
12 'functions' 'functions' 1 ((MODULE UNKNOWN UNKNOWN UNKNOWN NONE NONE)
(UNKNOWN) 0 0 () () () '' () ())
13 'id_ifile' 'comm' 1 ((VARIABLE UNKNOWN UNKNOWN UNKNOWN NONE NONE) (
INTEGER 4) 0 0 () () () '' () ())
14 'id_inf' 'comm' 1 ((VARIABLE UNKNOWN UNKNOWN UNKNOWN NONE NONE) (
INTEGER 4) 0 0 () () () '' () ())
15 'id_log' 'comm' 1 ((VARIABLE UNKNOWN UNKNOWN UNKNOWN NONE NONE) (
INTEGER 4) 0 0 () () () '' () ())
16 'id_para' 'comm' 1 ((VARIABLE UNKNOWN UNKNOWN UNKNOWN NONE NONE) (
INTEGER 4) 0 0 () () () '' () ())
17 'idsave' 'comm' 1 ((VARIABLE UNKNOWN UNKNOWN UNKNOWN NONE NONE) (
INTEGER 4) 0 0 () () () '' () ())
18 'iend' 'comm' 1 ((VARIABLE UNKNOWN UNKNOWN UNKNOWN NONE NONE) (
INTEGER 4) 0 0 () () () '' () ())
19 'ifile' 'comm' 1 ((VARIABLE UNKNOWN UNKNOWN UNKNOWN NONE NONE) (
CHARACTER 1 ((CONSTANT (INTEGER 4) 0 '200'))) 0 0 () () () '' () ())
20 'inf_file' 'comm' 1 ((VARIABLE UNKNOWN UNKNOWN UNKNOWN NONE NONE) (
CHARACTER 1 ((CONSTANT (INTEGER 4) 0 '200'))) 0 0 () () () '' () ())
21 'ipt_dir' 'comm' 1 ((VARIABLE UNKNOWN UNKNOWN UNKNOWN NONE NONE) (
CHARACTER 1 ((CONSTANT (INTEGER 4) 0 '200'))) 0 0 () () () '' () ())
22 'ismiss' 'functions' 1 ((PROCEDURE UNKNOWN MODULE-PROC DECL NONE NONE
FUNCTION) (LOGICAL 4) 0 0 (23 NONE) () () '' () ())
24 'kind' '(intrinsic)' 1 ((PROCEDURE UNKNOWN INTRINSIC UNKNOWN NONE
NONE FUNCTION) (UNKNOWN) 0 0 () () () '' () ())
25 'latitude' 'comm' 1 ((VARIABLE UNKNOWN UNKNOWN UNKNOWN NONE NONE) (
REAL 4) 0 0 () () () '' () ())
26 'leapyear' 'functions' 1 ((PROCEDURE UNKNOWN MODULE-PROC DECL NONE
NONE FUNCTION) (INTEGER 4) 0 0 (27 NONE) () () '' () ())
28 'log_file' 'comm' 1 ((VARIABLE UNKNOWN UNKNOWN UNKNOWN NONE NONE) (
CHARACTER 1 ((CONSTANT (INTEGER 4) 0 '200'))) 0 0 () () () '' () ())
29 'maxyear' 'comm' 1 ((PARAMETER UNKNOWN UNKNOWN UNKNOWN NONE NONE) (
INTEGER 4) 0 0 () (CONSTANT (INTEGER 4) 0 '500') () () '' () ())
30 'missing' 'comm' 1 ((PARAMETER UNKNOWN UNKNOWN UNKNOWN NONE NONE) (
REAL 4) 0 0 () (CONSTANT (REAL 4) 0 '13094093' 1 133) () () '' () ())
31 'mnastat' 'comm' 1 ((VARIABLE UNKNOWN UNKNOWN UNKNOWN NONE NONE
DIMENSION) (INTEGER 4) 0 0 () (3 EXPLICIT (CONSTANT (INTEGER 4) 0 '1') (
CONSTANT (INTEGER 4) 0 '500') (CONSTANT (INTEGER 4) 0 '1') (CONSTANT (
INTEGER 4) 0 '12') (CONSTANT (INTEGER 4) 0 '1') (CONSTANT (INTEGER 4) 0
'3')) () '' () ())
32 'mon' 'comm' 1 ((VARIABLE UNKNOWN UNKNOWN UNKNOWN NONE NONE DIMENSION
DATA) (INTEGER 4) 0 0 () (2 EXPLICIT (CONSTANT (INTEGER 4) 0 '1') (
CONSTANT (INTEGER 4) 0 '12') (CONSTANT (INTEGER 4) 0 '1') (CONSTANT (
INTEGER 4) 0 '2')) () '' () ())
33 'n_index' 'comm' 1 ((PARAMETER UNKNOWN UNKNOWN UNKNOWN NONE NONE) (
INTEGER 4) 0 0 () (CONSTANT (INTEGER 4) 0 '40') () () '' () ())
34 'nomiss' 'functions' 1 ((PROCEDURE UNKNOWN MODULE-PROC DECL NONE NONE
FUNCTION) (LOGICAL 4) 0 0 (35 NONE) () () '' () ())
36 'nomissingthreshold' 'comm' 1 ((VARIABLE UNKNOWN UNKNOWN UNKNOWN NONE
NONE) (REAL 4) 0 0 () () () '' () ())
37 'odir' 'comm' 1 ((VARIABLE UNKNOWN UNKNOWN UNKNOWN NONE NONE) (
CHARACTER 1 ((CONSTANT (INTEGER 4) 0 '200'))) 0 0 () () () '' () ())
38 'ofile' 'comm' 1 ((VARIABLE UNKNOWN UNKNOWN UNKNOWN NONE NONE
DIMENSION) (CHARACTER 1 ((CONSTANT (INTEGER 4) 0 '250'))) 0 0 () (1
EXPLICIT (CONSTANT (INTEGER 4) 0 '1') (CONSTANT (INTEGER 4) 0 '40')) () ''
() ())
39 'ofile_base' 'comm' 1 ((VARIABLE UNKNOWN UNKNOWN UNKNOWN NONE NONE) (
CHARACTER 1 ((CONSTANT (INTEGER 4) 0 '200'))) 0 0 () () () '' () ())
40 'oname' 'comm' 1 ((VARIABLE UNKNOWN UNKNOWN UNKNOWN NONE NONE) (
CHARACTER 1 ((CONSTANT (INTEGER 4) 0 '200'))) 0 0 () () () '' () ())
41 'opt_dir' 'comm' 1 ((VARIABLE UNKNOWN UNKNOWN UNKNOWN NONE NONE) (
CHARACTER 1 ((CONSTANT (INTEGER 4) 0 '200'))) 0 0 () () () '' () ())
42 'os' 'comm' 1 ((VARIABLE UNKNOWN UNKNOWN UNKNOWN NONE NONE) (
CHARACTER 1 ((CONSTANT (INTEGER 4) 0 '200'))) 0 0 () () () '' () ())
43 'para_file' 'comm' 1 ((VARIABLE UNKNOWN UNKNOWN UNKNOWN NONE NONE) (
CHARACTER 1 ((CONSTANT (INTEGER 4) 0 '200'))) 0 0 () () () '' () ())
44 'prcp' 'comm' 1 ((VARIABLE UNKNOWN UNKNOWN UNKNOWN NONE NONE
DIMENSION) (REAL 4) 0 0 () (1 EXPLICIT (CONSTANT (INTEGER 4) 0 '1') (
CONSTANT (INTEGER 4) 0 '182500')) () '' () ())
45 'prcp_miss' 'comm' 1 ((VARIABLE UNKNOWN UNKNOWN UNKNOWN NONE NONE) (
LOGICAL 4) 0 0 () () () '' () ())
46 'prcpnn' 'comm' 1 ((VARIABLE UNKNOWN UNKNOWN UNKNOWN NONE NONE) (
INTEGER 4) 0 0 () () () '' () ())
47 'rmiss' 'functions' 1 ((VARIABLE UNKNOWN UNKNOWN UNKNOWN NONE NONE) (
REAL 4) 0 0 () () () '' () ())
48 'save_thresholds' 'comm' 1 ((VARIABLE UNKNOWN UNKNOWN UNKNOWN NONE
NONE) (LOGICAL 4) 0 0 () () () '' () ())
49 'ss' 'comm' 1 ((VARIABLE UNKNOWN UNKNOWN UNKNOWN NONE NONE) (INTEGER
4) 0 0 () () () '' () ())
50 'stdspan' 'comm' 1 ((VARIABLE UNKNOWN UNKNOWN UNKNOWN NONE NONE) (
INTEGER 4) 0 0 () () () '' () ())
51 'stnid' 'comm' 1 ((VARIABLE UNKNOWN UNKNOWN UNKNOWN NONE NONE) (
CHARACTER 1 ((CONSTANT (INTEGER 4) 0 '200'))) 0 0 () () () '' () ())
52 'sub' 'comm' 1 ((VARIABLE UNKNOWN UNKNOWN UNKNOWN NONE NONE) (
CHARACTER 1 ((CONSTANT (INTEGER 4) 0 '1'))) 0 0 () () () '' () ())
53 'sub2' 'comm' 1 ((VARIABLE UNKNOWN UNKNOWN UNKNOWN NONE NONE
DIMENSION DATA) (CHARACTER 1 ((CONSTANT (INTEGER 4) 0 '1'))) 0 0 () (1
EXPLICIT (CONSTANT (INTEGER 4) 0 '1') (CONSTANT (INTEGER 4) 0 '2')) () ''
() ())
54 'syear' 'comm' 1 ((VARIABLE UNKNOWN UNKNOWN UNKNOWN NONE NONE) (
INTEGER 4) 0 0 () () () '' () ())
55 'tmax' 'comm' 1 ((VARIABLE UNKNOWN UNKNOWN UNKNOWN NONE NONE
DIMENSION) (REAL 4) 0 0 () (1 EXPLICIT (CONSTANT (INTEGER 4) 0 '1') (
CONSTANT (INTEGER 4) 0 '182500')) () '' () ())
56 'tmax_miss' 'comm' 1 ((VARIABLE UNKNOWN UNKNOWN UNKNOWN NONE NONE) (
LOGICAL 4) 0 0 () () () '' () ())
57 'tmin' 'comm' 1 ((VARIABLE UNKNOWN UNKNOWN UNKNOWN NONE NONE
DIMENSION) (REAL 4) 0 0 () (1 EXPLICIT (CONSTANT (INTEGER 4) 0 '1') (
CONSTANT (INTEGER 4) 0 '182500')) () '' () ())
58 'tmin_miss' 'comm' 1 ((VARIABLE UNKNOWN UNKNOWN UNKNOWN NONE NONE) (
LOGICAL 4) 0 0 () () () '' () ())
59 'tot' 'comm' 1 ((VARIABLE UNKNOWN UNKNOWN UNKNOWN NONE NONE) (
INTEGER 4) 0 0 () () () '' () ())
60 'winsize' 'comm' 1 ((VARIABLE UNKNOWN UNKNOWN UNKNOWN NONE NONE DATA)
(INTEGER 4) 0 0 () () () '' () ())
61 'ymd' 'comm' 1 ((VARIABLE UNKNOWN UNKNOWN UNKNOWN NONE NONE DIMENSION)
(INTEGER 4) 0 0 () (2 EXPLICIT (CONSTANT (INTEGER 4) 0 '1') (CONSTANT (
INTEGER 4) 0 '182500') (CONSTANT (INTEGER 4) 0 '1') (CONSTANT (INTEGER 4)
0 '3')) () '' () ())
62 'ynastat' 'comm' 1 ((VARIABLE UNKNOWN UNKNOWN UNKNOWN NONE NONE
DIMENSION) (INTEGER 4) 0 0 () (2 EXPLICIT (CONSTANT (INTEGER 4) 0 '1') (
CONSTANT (INTEGER 4) 0 '500') (CONSTANT (INTEGER 4) 0 '1') (CONSTANT (
INTEGER 4) 0 '3')) () '' () ())
63 'yrs' 'comm' 1 ((VARIABLE UNKNOWN UNKNOWN UNKNOWN NONE NONE) (
INTEGER 4) 0 0 () () () '' () ())
35 'a' '' 64 ((VARIABLE UNKNOWN UNKNOWN UNKNOWN NONE NONE DUMMY) (REAL 4)
0 0 () () () '' () ())
27 'iyear' '' 65 ((VARIABLE UNKNOWN UNKNOWN UNKNOWN NONE NONE DUMMY) (
INTEGER 4) 0 0 () () () '' () ())
23 'a' '' 66 ((VARIABLE UNKNOWN UNKNOWN UNKNOWN NONE NONE DUMMY) (REAL 4)
0 0 () () () '' () ())
)

('baseeyear' 0 2 'basesyear' 0 3 'byrs' 0 4 'cal_ehi' 0 5 'comm' 0 6
'data_dir' 0 7 'doy' 0 8 'dp' 0 9 'eyear' 0 10 'folder' 0 11 'functions'
0 12 'id_ifile' 0 13 'id_inf' 0 14 'id_log' 0 15 'id_para' 0 16 'idsave'
0 17 'iend' 0 18 'ifile' 0 19 'inf_file' 0 20 'ipt_dir' 0 21 'ismiss' 0
22 'kind' 0 24 'latitude' 0 25 'leapyear' 0 26 'log_file' 0 28 'maxyear'
0 29 'missing' 0 30 'mnastat' 0 31 'mon' 0 32 'n_index' 0 33 'nomiss' 0
34 'nomissingthreshold' 0 36 'odir' 0 37 'ofile' 0 38 'ofile_base' 0 39
'oname' 0 40 'opt_dir' 0 41 'os' 0 42 'para_file' 0 43 'prcp' 0 44
'prcp_miss' 0 45 'prcpnn' 0 46 'rmiss' 0 47 'save_thresholds' 0 48 'ss'
0 49 'stdspan' 0 50 'stnid' 0 51 'sub' 0 52 'sub2' 0 53 'syear' 0 54
'tmax' 0 55 'tmax_miss' 0 56 'tmin' 0 57 'tmin_miss' 0 58 'tot' 0 59
'winsize' 0 60 'ymd' 0 61 'ynastat' 0 62 'yrs' 0 63)
